{
  "$schema": "../../node_modules/nx/schemas/project-schema.json",
  "sourceRoot": "apps/todae-backend/src",
  "projectType": "application",
  "targets": {
    "build": {
      "executor": "@nrwl/node:webpack",
      "outputs": ["{options.outputPath}"],
      "options": {
        "outputPath": "dist/apps/todae-backend",
        "main": "apps/todae-backend/src/main.ts",
        "tsConfig": "apps/todae-backend/tsconfig.app.json",
        "assets": ["apps/todae-backend/src/assets"]
      },
      "configurations": {
        "production": {
          "optimization": true,
          "extractLicenses": true,
          "inspect": false,
          "fileReplacements": [
            {
              "replace": "apps/todae-backend/src/environments/environment.ts",
              "with": "apps/todae-backend/src/environments/environment.prod.ts"
            }
          ]
        }
      }
    },
    "serve": {
      "executor": "@nrwl/node:node",
      "options": {
        "buildTarget": "todae-backend:build"
      },
      "configurations": {
        "production": {
          "buildTarget": "todae-backend:build:production"
        }
      }
    },
    "lint": {
      "executor": "@nrwl/linter:eslint",
      "outputs": ["{options.outputFile}"],
      "options": {
        "lintFilePatterns": ["apps/todae-backend/**/*.ts"]
      }
    },
    "test": {
      "executor": "@nrwl/jest:jest",
      "outputs": ["coverage/apps/todae-backend"],
      "options": {
        "jestConfig": "apps/todae-backend/jest.config.ts",
        "passWithNoTests": true
      }
    }
  },
  "tags": []
}
