{
  "$schema": "./node_modules/nx/schemas/nx-schema.json",
  "npmScope": "todae",
  "affected": {
    "defaultBase": "main"
  },
  "implicitDependencies": {
    "package.json": {
      "dependencies": "*",
      "devDependencies": "*"
    },
    ".eslintrc.json": "*"
  },
  "tasksRunnerOptions": {
    "default": {
      "runner": "@nrwl/nx-cloud",
      "options": {
        "cacheableOperations": ["build", "lint", "test", "e2e"],
        "accessToken": "MjcxYjU2NzAtNGY4MC00MTJlLTg0Y2ItZWFhMTMyYTQ3YzAxfHJlYWQtd3JpdGU="
      }
    }
  },
  "targetDefaults": {
    "build": {
      "dependsOn": ["^build"]
    }
  },
  "defaultProject": "todae-backend"
}
